<?xml version="1.0" encoding="utf-8"?>
<!-- Generator: Adobe Illustrator 20.1.0, SVG Export Plug-In . SVG Version: 6.00 Build 0)  -->
<svg version="1.1" id="Layer_1" xmlns="http://www.w3.org/2000/svg" xmlns:xlink="http://www.w3.org/1999/xlink" x="0px" y="0px"
	 viewBox="0 0 14.245 22.832" style="enable-background:new 0 0 14.245 22.832;" xml:space="preserve">
<g>
	<polygon points="2.828,22.832 0,20.004 8.588,11.416 0,2.828 2.828,0 14.244,11.416 	"/>
</g>
</svg>
