<?xml version="1.0" encoding="utf-8"?>
<!-- Generator: Adobe Illustrator 20.1.0, SVG Export Plug-In . SVG Version: 6.00 Build 0)  -->
<svg version="1.1" id="Layer_1" xmlns="http://www.w3.org/2000/svg" xmlns:xlink="http://www.w3.org/1999/xlink" x="0px" y="0px"
	 viewBox="0 0 19.2 17.8" style="enable-background:new 0 0 19.2 17.8;" xml:space="preserve">
<style type="text/css">
	.st0{fill:#F9ED30;}
</style>
<g>
	<g>
		<g>
			<polygon class="st0" points="9.9,17.8 8.5,16.4 16.3,8.9 8.5,1.4 9.9,0 19.2,8.9 			"/>
		</g>
	</g>
	<g>
		<g>
			<polygon class="st0" points="1.4,17.8 0,16.4 7.8,8.9 0,1.4 1.4,0 10.7,8.9 			"/>
		</g>
	</g>
</g>
</svg>
